[coded]
$Net00023_=X36_NET00023_X95
$Net00065_=X36_NET00065_X95
$Net00064_=X36_NET00064_X95
$Net00058_=X36_NET00058_X95
$Net00059_=X36_NET00059_X95
$Net00060_=X36_NET00060_X95
$Net00061_=X36_NET00061_X95
$Net00062_=X36_NET00062_X95
$Net00063_=X36_NET00063_X95
$Net00042_=X36_NET00042_X95
$Net00043_=X36_NET00043_X95
$Net00044_=X36_NET00044_X95
$Net00045_=X36_NET00045_X95
$Net00046_=X36_NET00046_X95
$Net00047_=X36_NET00047_X95
$Net00048_=X36_NET00048_X95
$Net00049_=X36_NET00049_X95
$I193=X36_I193
$I194=X36_I194
$I195=X36_I195
$I196=X36_I196
$I197=X36_I197
$I198=X36_I198
$I199=X36_I199
$I200=X36_I200
$I201=X36_I201
$I202=X36_I202
$I203=X36_I203
$I204=X36_I204
$I205=X36_I205
$I206=X36_I206
$I207=X36_I207
$I208=X36_I208
$I209=X36_I209
$I210=X36_I210
$I211=X36_I211
$I212=X36_I212
$I213=X36_I213
$I214=X36_I214
$I215=X36_I215
$I216=X36_I216
$I217=X36_I217
